{
  "response": {
    "status": "ok",
    "userTier": "developer",
    "total": 2283401,
    "startIndex": 1,
    "pageSize": 10,
    "currentPage": 1,
    "pages": 228341,
    "orderBy": "newest",
    "results": [
      {
        "id": "sport/live/2021/jul/24/tokyo-olympic-games-2020-womens-cycling-road-race-gymnastics-day-two-live",
        "type": "liveblog",
        "sectionId": "sport",
        "sectionName": "Sport",
        "webPublicationDate": "2021-07-25T21:09:50Z",
        "webTitle": "Olympics 2020: Anna Kiesenhofer takes road race glory on day of upsets – live!",
        "webUrl": "https://www.theguardian.com/sport/live/2021/jul/24/tokyo-olympic-games-2020-womens-cycling-road-race-gymnastics-day-two-live",
        "apiUrl": "https://content.guardianapis.com/sport/live/2021/jul/24/tokyo-olympic-games-2020-womens-cycling-road-race-gymnastics-day-two-live",
        "fields": {
          "thumbnail": "https://media.guim.co.uk/a4daf8d59aa783defa3c4c67916a8865474e88de/53_210_3346_2007/500.jpg"
        },
        "isHosted": false,
        "pillarId": "pillar/sport",
        "pillarName": "Sport"
      },
      {
        "id": "sport/2021/jul/25/lions-have-destiny-in-their-own-hands-after-stirring-comeback",
        "type": "article",
        "sectionId": "sport",
        "sectionName": "Sport",
        "webPublicationDate": "2021-07-25T21:00:02Z",
        "webTitle": "Lions have destiny in their own hands after stirring comeback | Robert Kitson",
        "webUrl": "https://www.theguardian.com/sport/2021/jul/25/lions-have-destiny-in-their-own-hands-after-stirring-comeback",
        "apiUrl": "https://content.guardianapis.com/sport/2021/jul/25/lions-have-destiny-in-their-own-hands-after-stirring-comeback",
        "fields": {
          "thumbnail": "https://media.guim.co.uk/5aec0e791dc1ac39efa086d8b65811502ec82039/0_89_4200_2521/500.jpg"
        },
        "isHosted": false,
        "pillarId": "pillar/sport",
        "pillarName": "Sport"
      },
      {
        "id": "sport/2021/jul/25/british-and-irish-lions-tmo-outrage-succeeds-with-south-africa-losing-out-on-marginal-calls",
        "type": "article",
        "sectionId": "sport",
        "sectionName": "Sport",
        "webPublicationDate": "2021-07-25T21:00:02Z",
        "webTitle": "Lions’ TMO outrage succeeds with South Africa losing marginal calls",
        "webUrl": "https://www.theguardian.com/sport/2021/jul/25/british-and-irish-lions-tmo-outrage-succeeds-with-south-africa-losing-out-on-marginal-calls",
        "apiUrl": "https://content.guardianapis.com/sport/2021/jul/25/british-and-irish-lions-tmo-outrage-succeeds-with-south-africa-losing-out-on-marginal-calls",
        "fields": {
          "thumbnail": "https://media.guim.co.uk/56f27fbbf41343c9f417dfe2ff5313a2970a822b/0_90_2700_1620/500.jpg"
        },
        "isHosted": false,
        "pillarId": "pillar/sport",
        "pillarName": "Sport"
      },
      {
        "id": "sport/2021/jul/25/lions-coach-warren-gatland-piles-pressure-on-desperate-south-africa",
        "type": "article",
        "sectionId": "sport",
        "sectionName": "Sport",
        "webPublicationDate": "2021-07-25T21:00:01Z",
        "webTitle": "Lions coach Warren Gatland piles pressure on ‘desperate’ South Africa",
        "webUrl": "https://www.theguardian.com/sport/2021/jul/25/lions-coach-warren-gatland-piles-pressure-on-desperate-south-africa",
        "apiUrl": "https://content.guardianapis.com/sport/2021/jul/25/lions-coach-warren-gatland-piles-pressure-on-desperate-south-africa",
        "fields": {
          "thumbnail": "https://media.guim.co.uk/bbe15f0021825961c98248f92a67965b7baa76c8/0_200_4972_2984/500.jpg"
        },
        "isHosted": false,
        "pillarId": "pillar/sport",
        "pillarName": "Sport"
      },
      {
        "id": "uk-news/2021/jul/25/covid-case-figures-fall-five-days-in-row-for-first-time-since-february",
        "type": "article",
        "sectionId": "uk-news",
        "sectionName": "UK news",
        "webPublicationDate": "2021-07-25T20:02:11Z",
        "webTitle": "Covid case figures fall five days in row for first time since February",
        "webUrl": "https://www.theguardian.com/uk-news/2021/jul/25/covid-case-figures-fall-five-days-in-row-for-first-time-since-february",
        "apiUrl": "https://content.guardianapis.com/uk-news/2021/jul/25/covid-case-figures-fall-five-days-in-row-for-first-time-since-february",
        "fields": {
          "thumbnail": "https://media.guim.co.uk/cd572836fc6c25c124fc11f375d372fda5e31c71/0_147_4500_2700/500.jpg"
        },
        "isHosted": false,
        "pillarId": "pillar/news",
        "pillarName": "News"
      },
      {
        "id": "news/2021/jul/25/corrections-and-clarifications",
        "type": "article",
        "sectionId": "news",
        "sectionName": "News",
        "webPublicationDate": "2021-07-25T20:00:00Z",
        "webTitle": "Corrections and clarifications",
        "webUrl": "https://www.theguardian.com/news/2021/jul/25/corrections-and-clarifications",
        "apiUrl": "https://content.guardianapis.com/news/2021/jul/25/corrections-and-clarifications",
        "isHosted": false,
        "pillarId": "pillar/news",
        "pillarName": "News"
      },
      {
        "id": "media/2021/jul/25/tucker-carlson-fox-news-worst-human-being-viral-video-montana",
        "type": "article",
        "sectionId": "media",
        "sectionName": "Media",
        "webPublicationDate": "2021-07-25T19:07:01Z",
        "webTitle": "‘You are the worst human being’: man confronts Fox News host Tucker Carlson",
        "webUrl": "https://www.theguardian.com/media/2021/jul/25/tucker-carlson-fox-news-worst-human-being-viral-video-montana",
        "apiUrl": "https://content.guardianapis.com/media/2021/jul/25/tucker-carlson-fox-news-worst-human-being-viral-video-montana",
        "fields": {
          "thumbnail": "https://media.guim.co.uk/0e94b8b67198bfbea4f62a68ffdb8fda2543f788/0_32_6720_4032/500.jpg"
        },
        "isHosted": false,
        "pillarId": "pillar/news",
        "pillarName": "News"
      },
      {
        "id": "world/2021/jul/25/seriously-ill-young-people-in-current-covid-admissions-expert-warns",
        "type": "article",
        "sectionId": "world",
        "sectionName": "World news",
        "webPublicationDate": "2021-07-25T19:05:38Z",
        "webTitle": "Doctors warn over increasing number of young people with Covid in ICU",
        "webUrl": "https://www.theguardian.com/world/2021/jul/25/seriously-ill-young-people-in-current-covid-admissions-expert-warns",
        "apiUrl": "https://content.guardianapis.com/world/2021/jul/25/seriously-ill-young-people-in-current-covid-admissions-expert-warns",
        "fields": {
          "thumbnail": "https://media.guim.co.uk/fc6cc0da242ca930f86b95504cec5e07c353ec65/0_111_5452_3272/500.jpg"
        },
        "isHosted": false,
        "pillarId": "pillar/news",
        "pillarName": "News"
      },
      {
        "id": "football/2021/jul/25/crystal-palace-take-gamble-on-patrick-vieiras-youth-revolution",
        "type": "article",
        "sectionId": "football",
        "sectionName": "Football",
        "webPublicationDate": "2021-07-25T19:00:00Z",
        "webTitle": "Crystal Palace take gamble on Patrick Vieira’s youth revolution | Ed Aarons",
        "webUrl": "https://www.theguardian.com/football/2021/jul/25/crystal-palace-take-gamble-on-patrick-vieiras-youth-revolution",
        "apiUrl": "https://content.guardianapis.com/football/2021/jul/25/crystal-palace-take-gamble-on-patrick-vieiras-youth-revolution",
        "fields": {
          "thumbnail": "https://media.guim.co.uk/a43cb68dc5f74413d17c231ad8aa6df81346cc40/0_193_3500_2099/500.jpg"
        },
        "isHosted": false,
        "pillarId": "pillar/sport",
        "pillarName": "Sport"
      },
      {
        "id": "uk-news/2021/jul/25/additional-emergency-workplace-testing-to-be-introduced-in-england",
        "type": "article",
        "sectionId": "uk-news",
        "sectionName": "UK news",
        "webPublicationDate": "2021-07-25T18:50:27Z",
        "webTitle": "Additional emergency workplace testing to be introduced in England",
        "webUrl": "https://www.theguardian.com/uk-news/2021/jul/25/additional-emergency-workplace-testing-to-be-introduced-in-england",
        "apiUrl": "https://content.guardianapis.com/uk-news/2021/jul/25/additional-emergency-workplace-testing-to-be-introduced-in-england",
        "fields": {
          "thumbnail": "https://media.guim.co.uk/ccb0e02eb154598ac04c70cf80f21a7700ec3794/0_0_4500_2700/500.jpg"
        },
        "isHosted": false,
        "pillarId": "pillar/news",
        "pillarName": "News"
      }
    ]
  }
}